Valores da produção de motociclos no País
…
Tratamento do banco de dados

dados <- dataset %>%
  mutate( ano_mes = str_sub( data, 1, 7 )  ) %>%
  group_by(ano_mes) %>% summarise( producao = sum(valor)  )
dados

## # A tibble: 357 × 2
##    ano_mes producao
##    <chr>      <dbl>
##  1 1993-01     4555
##  2 1993-02     5066
##  3 1993-03     6815
##  4 1993-04     5744
##  5 1993-05     6358
##  6 1993-06     7091
##  7 1993-07     7518
##  8 1993-08     7970
##  9 1993-09    10242
## 10 1993-10     9049
## # … with 347 more rows

transformando parao formato tstible

serie <- dados %>%
  mutate(data = yearmonth(ano_mes))%>%
  as_tsibble(index= data )
serie

## # A tsibble: 357 x 3 [1M]
##    ano_mes producao     data
##    <chr>      <dbl>    <mth>
##  1 1993-01     4555 1993 Jan
##  2 1993-02     5066 1993 Feb
##  3 1993-03     6815 1993 Mar
##  4 1993-04     5744 1993 Apr
##  5 1993-05     6358 1993 May
##  6 1993-06     7091 1993 Jun
##  7 1993-07     7518 1993 Jul
##  8 1993-08     7970 1993 Aug
##  9 1993-09    10242 1993 Sep
## 10 1993-10     9049 1993 Oct
## # … with 347 more rows
…
Gerando uma previsão h = 10 (passos)

caf_fc <- caf_fit %>% forecast(h = 10)
caf_fc

## # A fable: 100 x 4 [1M]
## # Key:     .model [10]
##    .model     data          producao  .mean
##    <chr>     <mth>            <dist>  <dbl>
##  1 ETS1   2022 Jan N(99503, 4.5e+08) 99503.
##  2 ETS1   2022 Feb   N(99503, 5e+08) 99503.
##  3 ETS1   2022 Mar N(99503, 5.4e+08) 99503.
##  4 ETS1   2022 Apr N(99503, 5.8e+08) 99503.
##  5 ETS1   2022 May N(99503, 6.2e+08) 99503.
##  6 ETS1   2022 Jun N(99503, 6.7e+08) 99503.
##  7 ETS1   2022 Jul N(99503, 7.1e+08) 99503.
##  8 ETS1   2022 Aug N(99503, 7.5e+08) 99503.
##  9 ETS1   2022 Sep N(99503, 7.9e+08) 99503.
## 10 ETS1   2022 Oct N(99503, 8.4e+08) 99503.
## # … with 90 more rows
…
